%YAML 1.1
%TAG !u! tag:unity3d.com,2011:
--- !u!114 &11400000
MonoBehaviour:
  m_ObjectHideFlags: 0
  m_CorrespondingSourceObject: {fileID: 0}
  m_PrefabInternal: {fileID: 0}
  m_GameObject: {fileID: 0}
  m_Enabled: 1
  m_EditorHideFlags: 0
  m_Script: {fileID: 11500000, guid: d14aee8fff9216c4696a1cbf3b6fb1fc, type: 3}
  m_Name: EnemyWaveTest
  m_EditorClassIdentifier: 
  enemies:
  - enemyType: 2
    time: 5
  - enemyType: 1
    time: 5
