%YAML 1.1
%TAG !u! tag:unity3d.com,2011:
--- !u!114 &11400000
MonoBehaviour:
  m_ObjectHideFlags: 0
  m_CorrespondingSourceObject: {fileID: 0}
  m_PrefabInternal: {fileID: 0}
  m_GameObject: {fileID: 0}
  m_Enabled: 1
  m_EditorHideFlags: 0
  m_Script: {fileID: 11500000, guid: d14aee8fff9216c4696a1cbf3b6fb1fc, type: 3}
  m_Name: EnemyWave02
  m_EditorClassIdentifier: 
  enemies:
  - enemyType: 0
    time: 2
  - enemyType: 0
    time: 10
  - enemyType: 1
    time: 20
  - enemyType: 1
    time: 20
  - enemyType: 0
    time: 40
  - enemyType: 1
    time: 40
  - enemyType: 0
    time: 70
  - enemyType: 1
    time: 70
  - enemyType: 0
    time: 80
  - enemyType: 1
    time: 80
